{
    "name": "InterractiveFloor.PostProcessing",
    "rootNamespace": "InterractiveFloor.PostProcessing",
    "references": [
        "InterractiveFloor.Core"
    ],
    "includePlatforms": [
        "Editor"
    ],
    "excludePlatforms": [],
    "allowUnsafeCode": false,
    "overrideReferences": false,
    "precompiledReferences": [],
    "autoReferenced": true,
    "defineConstraints": [],
    "versionDefines": [],
    "noEngineReferences": false
}